^D:\ANULII-SEMII\CNA\TEMA_1\TEMA_1\DEBUG\DIVISIONOPERATION.GRPC.PB.OBJ|D:\ANULII-SEMII\CNA\TEMA_1\TEMA_1\DEBUG\DIVISIONOPERATION.PB.OBJ|D:\ANULII-SEMII\CNA\TEMA_1\TEMA_1\DEBUG\DIVISIONREQUEST.GRPC.PB.OBJ|D:\ANULII-SEMII\CNA\TEMA_1\TEMA_1\DEBUG\DIVISIONREQUEST.PB.OBJ|D:\ANULII-SEMII\CNA\TEMA_1\TEMA_1\DEBUG\EMPTYRESPONSE.GRPC.PB.OBJ|D:\ANULII-SEMII\CNA\TEMA_1\TEMA_1\DEBUG\EMPTYRESPONSE.PB.OBJ|D:\ANULII-SEMII\CNA\TEMA_1\TEMA_1\DEBUG\MULTIPLICATIONOPERATION.GRPC.PB.OBJ|D:\ANULII-SEMII\CNA\TEMA_1\TEMA_1\DEBUG\MULTIPLICATIONOPERATION.PB.OBJ|D:\ANULII-SEMII\CNA\TEMA_1\TEMA_1\DEBUG\MULTIPLICATIONREQUEST.GRPC.PB.OBJ|D:\ANULII-SEMII\CNA\TEMA_1\TEMA_1\DEBUG\MULTIPLICATIONREQUEST.PB.OBJ|D:\ANULII-SEMII\CNA\TEMA_1\TEMA_1\DEBUG\OPERATIONRESPONSE.GRPC.PB.OBJ|D:\ANULII-SEMII\CNA\TEMA_1\TEMA_1\DEBUG\OPERATIONRESPONSE.PB.OBJ|D:\ANULII-SEMII\CNA\TEMA_1\TEMA_1\DEBUG\SHOWNAMEOPERATION.GRPC.PB.OBJ|D:\ANULII-SEMII\CNA\TEMA_1\TEMA_1\DEBUG\SHOWNAMEOPERATION.PB.OBJ|D:\ANULII-SEMII\CNA\TEMA_1\TEMA_1\DEBUG\SHOWNAMEREQUEST.GRPC.PB.OBJ|D:\ANULII-SEMII\CNA\TEMA_1\TEMA_1\DEBUG\SHOWNAMEREQUEST.PB.OBJ|D:\ANULII-SEMII\CNA\TEMA_1\TEMA_1\DEBUG\SUBTRACTIONOPERATION.GRPC.PB.OBJ|D:\ANULII-SEMII\CNA\TEMA_1\TEMA_1\DEBUG\SUBTRACTIONOPERATION.PB.OBJ|D:\ANULII-SEMII\CNA\TEMA_1\TEMA_1\DEBUG\SUBTRACTIONREQUEST.GRPC.PB.OBJ|D:\ANULII-SEMII\CNA\TEMA_1\TEMA_1\DEBUG\SUBTRACTIONREQUEST.PB.OBJ|D:\ANULII-SEMII\CNA\TEMA_1\TEMA_1\DEBUG\SUMOPERATION.GRPC.PB.OBJ|D:\ANULII-SEMII\CNA\TEMA_1\TEMA_1\DEBUG\SUMOPERATION.PB.OBJ|D:\ANULII-SEMII\CNA\TEMA_1\TEMA_1\DEBUG\SUMREQUEST.GRPC.PB.OBJ|D:\ANULII-SEMII\CNA\TEMA_1\TEMA_1\DEBUG\SUMREQUEST.PB.OBJ|D:\ANULII-SEMII\CNA\TEMA_1\TEMA_1\DEBUG\TEMA_1.OBJ
/OUT:"D:\ANULII-SEMII\CNA\TEMA_1\DEBUG\GENERATED.LIB" LIBPROTOBUFD.LIB GRPC.LIB /LIBPATH:"D:\ANULII-SEMII\CNA\VCPKG-MASTER\VCPKG-MASTER\INSTALLED\X86-WINDOWS\DEBUG\LIB" /NOLOGO /MACHINE:X86 DEBUG\DIVISIONOPERATION.GRPC.PB.OBJ
DEBUG\DIVISIONOPERATION.PB.OBJ
DEBUG\DIVISIONREQUEST.GRPC.PB.OBJ
DEBUG\DIVISIONREQUEST.PB.OBJ
DEBUG\EMPTYRESPONSE.GRPC.PB.OBJ
DEBUG\EMPTYRESPONSE.PB.OBJ
DEBUG\MULTIPLICATIONOPERATION.GRPC.PB.OBJ
DEBUG\MULTIPLICATIONOPERATION.PB.OBJ
DEBUG\MULTIPLICATIONREQUEST.GRPC.PB.OBJ
DEBUG\MULTIPLICATIONREQUEST.PB.OBJ
DEBUG\OPERATIONRESPONSE.GRPC.PB.OBJ
DEBUG\OPERATIONRESPONSE.PB.OBJ
DEBUG\SHOWNAMEOPERATION.GRPC.PB.OBJ
DEBUG\SHOWNAMEOPERATION.PB.OBJ
DEBUG\SHOWNAMEREQUEST.GRPC.PB.OBJ
DEBUG\SHOWNAMEREQUEST.PB.OBJ
DEBUG\SUBTRACTIONOPERATION.GRPC.PB.OBJ
DEBUG\SUBTRACTIONOPERATION.PB.OBJ
DEBUG\SUBTRACTIONREQUEST.GRPC.PB.OBJ
DEBUG\SUBTRACTIONREQUEST.PB.OBJ
DEBUG\SUMOPERATION.GRPC.PB.OBJ
DEBUG\SUMOPERATION.PB.OBJ
DEBUG\SUMREQUEST.GRPC.PB.OBJ
DEBUG\SUMREQUEST.PB.OBJ
DEBUG\TEMA_1.OBJ
^D:\REPOSITORY\TEMA_1_CNA\TEMA_1\TEMA_1\DEBUG\DIVISIONOPERATION.GRPC.PB.OBJ|D:\REPOSITORY\TEMA_1_CNA\TEMA_1\TEMA_1\DEBUG\DIVISIONOPERATION.PB.OBJ|D:\REPOSITORY\TEMA_1_CNA\TEMA_1\TEMA_1\DEBUG\DIVISIONREQUEST.GRPC.PB.OBJ|D:\REPOSITORY\TEMA_1_CNA\TEMA_1\TEMA_1\DEBUG\DIVISIONREQUEST.PB.OBJ|D:\REPOSITORY\TEMA_1_CNA\TEMA_1\TEMA_1\DEBUG\EMPTYRESPONSE.GRPC.PB.OBJ|D:\REPOSITORY\TEMA_1_CNA\TEMA_1\TEMA_1\DEBUG\EMPTYRESPONSE.PB.OBJ|D:\REPOSITORY\TEMA_1_CNA\TEMA_1\TEMA_1\DEBUG\MULTIPLICATIONOPERATION.GRPC.PB.OBJ|D:\REPOSITORY\TEMA_1_CNA\TEMA_1\TEMA_1\DEBUG\MULTIPLICATIONOPERATION.PB.OBJ|D:\REPOSITORY\TEMA_1_CNA\TEMA_1\TEMA_1\DEBUG\MULTIPLICATIONREQUEST.GRPC.PB.OBJ|D:\REPOSITORY\TEMA_1_CNA\TEMA_1\TEMA_1\DEBUG\MULTIPLICATIONREQUEST.PB.OBJ|D:\REPOSITORY\TEMA_1_CNA\TEMA_1\TEMA_1\DEBUG\OPERATIONRESPONSE.GRPC.PB.OBJ|D:\REPOSITORY\TEMA_1_CNA\TEMA_1\TEMA_1\DEBUG\OPERATIONRESPONSE.PB.OBJ|D:\REPOSITORY\TEMA_1_CNA\TEMA_1\TEMA_1\DEBUG\SHOWNAMEOPERATION.GRPC.PB.OBJ|D:\REPOSITORY\TEMA_1_CNA\TEMA_1\TEMA_1\DEBUG\SHOWNAMEOPERATION.PB.OBJ|D:\REPOSITORY\TEMA_1_CNA\TEMA_1\TEMA_1\DEBUG\SHOWNAMEREQUEST.GRPC.PB.OBJ|D:\REPOSITORY\TEMA_1_CNA\TEMA_1\TEMA_1\DEBUG\SHOWNAMEREQUEST.PB.OBJ|D:\REPOSITORY\TEMA_1_CNA\TEMA_1\TEMA_1\DEBUG\SUBTRACTIONOPERATION.GRPC.PB.OBJ|D:\REPOSITORY\TEMA_1_CNA\TEMA_1\TEMA_1\DEBUG\SUBTRACTIONOPERATION.PB.OBJ|D:\REPOSITORY\TEMA_1_CNA\TEMA_1\TEMA_1\DEBUG\SUBTRACTIONREQUEST.GRPC.PB.OBJ|D:\REPOSITORY\TEMA_1_CNA\TEMA_1\TEMA_1\DEBUG\SUBTRACTIONREQUEST.PB.OBJ|D:\REPOSITORY\TEMA_1_CNA\TEMA_1\TEMA_1\DEBUG\SUMOPERATION.GRPC.PB.OBJ|D:\REPOSITORY\TEMA_1_CNA\TEMA_1\TEMA_1\DEBUG\SUMOPERATION.PB.OBJ|D:\REPOSITORY\TEMA_1_CNA\TEMA_1\TEMA_1\DEBUG\SUMREQUEST.GRPC.PB.OBJ|D:\REPOSITORY\TEMA_1_CNA\TEMA_1\TEMA_1\DEBUG\SUMREQUEST.PB.OBJ|D:\REPOSITORY\TEMA_1_CNA\TEMA_1\TEMA_1\DEBUG\TEMA_1.OBJ
/OUT:"D:\REPOSITORY\TEMA_1_CNA\TEMA_1\DEBUG\GENERATED.LIB" LIBPROTOBUFD.LIB GRPC.LIB /LIBPATH:"D:\ANULII-SEMII\CNA\VCPKG-MASTER\VCPKG-MASTER\INSTALLED\X86-WINDOWS\DEBUG\LIB" /NOLOGO /MACHINE:X86 DEBUG\DIVISIONOPERATION.GRPC.PB.OBJ
DEBUG\DIVISIONOPERATION.PB.OBJ
DEBUG\DIVISIONREQUEST.GRPC.PB.OBJ
DEBUG\DIVISIONREQUEST.PB.OBJ
DEBUG\EMPTYRESPONSE.GRPC.PB.OBJ
DEBUG\EMPTYRESPONSE.PB.OBJ
DEBUG\MULTIPLICATIONOPERATION.GRPC.PB.OBJ
DEBUG\MULTIPLICATIONOPERATION.PB.OBJ
DEBUG\MULTIPLICATIONREQUEST.GRPC.PB.OBJ
DEBUG\MULTIPLICATIONREQUEST.PB.OBJ
DEBUG\OPERATIONRESPONSE.GRPC.PB.OBJ
DEBUG\OPERATIONRESPONSE.PB.OBJ
DEBUG\SHOWNAMEOPERATION.GRPC.PB.OBJ
DEBUG\SHOWNAMEOPERATION.PB.OBJ
DEBUG\SHOWNAMEREQUEST.GRPC.PB.OBJ
DEBUG\SHOWNAMEREQUEST.PB.OBJ
DEBUG\SUBTRACTIONOPERATION.GRPC.PB.OBJ
DEBUG\SUBTRACTIONOPERATION.PB.OBJ
DEBUG\SUBTRACTIONREQUEST.GRPC.PB.OBJ
DEBUG\SUBTRACTIONREQUEST.PB.OBJ
DEBUG\SUMOPERATION.GRPC.PB.OBJ
DEBUG\SUMOPERATION.PB.OBJ
DEBUG\SUMREQUEST.GRPC.PB.OBJ
DEBUG\SUMREQUEST.PB.OBJ
DEBUG\TEMA_1.OBJ
